{
  "forge_marker": 1,
  "defaults": {
    "model": "cube_all",
    "textures": { "all": "planetbound:blocks/rendium_ore_ronnian" }
  },
  "variants": {
    "normal": [{}],
    "inventory": [{}]
  }
}