{
  "forge_marker": 1,
  "defaults": {
    "textures": {
      "all": "planetbound:blocks/ronnian_dirt"
    }
  },
  "variants": {
    "normal": [
      { "model": "cube_all" },
      { "model": "cube_all", "y": 180 },
      { "model": "cube_mirrored_all"  },
      { "model": "cube_mirrored_all", "y": 180 }
    ],
    "inventory": [{ "model": "cube_all" }]
  }
}