{
  "forge_marker": 1,
  "defaults": {
    "model": "cube_column",
    "textures": {
      "end": "planetbound:blocks/smooth_ronnian_sandstone_top",
      "side": "planetbound:blocks/ronnian_sandstone_chiseled"
    }
  },
  "variants": {
    "normal": [{}],
    "inventory": [{}]
  }
}
